2018-05-06 23:55:48 DEBUG headers:265 - << Content-Type: application/json; charset=utf-8
2018-05-06 23:55:48 DEBUG headers:265 - << Content-Length: 828
2018-05-06 23:55:48 DEBUG headers:265 - << Connection: keep-alive
2018-05-06 23:55:48 DEBUG headers:265 - << set-cookie: ctoken=7d63ae7062c64cfd96f444618652631a; Domain=.iextrading.com; Path=/; Expires=Mon, 07 May 2018 06:25:48 GMT; Secure
2018-05-06 23:55:48 DEBUG headers:265 - << Content-Security-Policy: default-src 'self'; child-src 'none'; object-src 'none'; style-src 'self' 'unsafe-inline'; font-src data:; connect-src 'self' https://auth.iextrading.com https://api.iextrading.com https://api.iextrading.com wss://iextrading.com wss://tops.iextrading.com wss://api.iextrading.com wss://iextrading.com; script-src 'self' 'unsafe-inline' 'unsafe-eval';
2018-05-06 23:55:48 DEBUG headers:265 - << X-Content-Security-Policy: default-src 'self'; child-src 'none'; object-src 'none'; style-src 'self' 'unsafe-inline'; font-src data:; connect-src 'self' https://auth.iextrading.com https://api.iextrading.com https://api.iextrading.com wss://iextrading.com wss://tops.iextrading.com wss://api.iextrading.com wss://iextrading.com; script-src 'self' 'unsafe-inline' 'unsafe-eval';
