2018-05-06 23:55:49 DEBUG wire:87 -  << "{"GOOG":{"quote":{"symbol":"GOOG","companyName":"Alphabet Inc.","primaryExchange":"Nasdaq Global Select","sector":"Technology","calculationPrice":"close","open":1016.9,"openTime":1525440600400,"close":1048.21,"closeTime":1525464000464,"high":1048.51,"low":1016.9,"latestPrice":1048.21,"latestSource":"Close","latestTime":"May 4, 2018","latestUpdate":1525464000464,"latestVolume":1928250,"iexRealtimePrice":null,"iexRealtimeSize":null,"iexLastUpdated":null,"delayedPrice":1048,"delayedPriceTime":1525467563052,"previousClose":1023.72,"change":24.49,"changePercent":0.02392,"iexMarketPercent":null,"iexVolume":null,"avgTotalVolume":2085705,"iexBidPrice":null,"iexBidSize":null,"iexAskPrice":null,"iexAskSize":null,"marketCap":728032958864,"peRatio":53.75,"week52High":1186.89,"week52Low":894.79,"ytdChange":-0.01576525821596241}}}"
2018-05-06 23:55:49 DEBUG BasicClientConnectionManager:200 - Releasing connection org.apache.http.impl.conn.ManagedClientConnectionImpl@6591f517
2018-05-06 23:55:49 DEBUG BasicClientConnectionManager:225 - Connection can be kept alive indefinitely
