2018-05-06 23:55:48 DEBUG headers:265 - << Frame-Options: deny
2018-05-06 23:55:48 DEBUG headers:265 - << X-Frame-Options: deny
2018-05-06 23:55:48 DEBUG headers:265 - << X-Content-Type-Options: nosniff
2018-05-06 23:55:48 DEBUG headers:265 - << Strict-Transport-Security: max-age=15768000
2018-05-06 23:55:48 DEBUG headers:265 - << Access-Control-Allow-Origin: *
2018-05-06 23:55:48 DEBUG headers:265 - << Access-Control-Allow-Credentials: true
2018-05-06 23:55:48 DEBUG headers:265 - << Access-Control-Allow-Methods: GET, OPTIONS
2018-05-06 23:55:48 DEBUG headers:265 - << Access-Control-Allow-Headers: Origin, X-Requested-With, Content-Type, Accept
2018-05-06 23:55:48 WARN  ResponseProcessCookies:130 - Invalid cookie header: "set-cookie: ctoken=7d63ae7062c64cfd96f444618652631a; Domain=.iextrading.com; Path=/; Expires=Mon, 07 May 2018 06:25:48 GMT; Secure". Invalid 'expires' attribute: Mon, 07 May 2018 06:25:48 GMT
2018-05-06 23:55:48 DEBUG DefaultHttpClient:509 - Connection can be kept alive indefinitely
