2018-05-03 15:16:15 DEBUG headers:265 - << Frame-Options: deny
2018-05-03 15:16:15 DEBUG headers:265 - << X-Frame-Options: deny
2018-05-03 15:16:15 DEBUG headers:265 - << X-Content-Type-Options: nosniff
2018-05-03 15:16:15 DEBUG headers:265 - << Strict-Transport-Security: max-age=15768000
2018-05-03 15:16:15 DEBUG headers:265 - << Access-Control-Allow-Origin: *
2018-05-03 15:16:15 DEBUG headers:265 - << Access-Control-Allow-Credentials: true
2018-05-03 15:16:15 DEBUG headers:265 - << Access-Control-Allow-Methods: GET, OPTIONS
2018-05-03 15:16:15 DEBUG headers:265 - << Access-Control-Allow-Headers: Origin, X-Requested-With, Content-Type, Accept
2018-05-03 15:16:15 WARN  ResponseProcessCookies:130 - Invalid cookie header: "set-cookie: ctoken=94ac51b5e6f24eb792b8c8263b4b310a; Domain=.iextrading.com; Path=/; Expires=Thu, 03 May 2018 21:46:14 GMT; Secure". Invalid 'expires' attribute: Thu, 03 May 2018 21:46:14 GMT
2018-05-03 15:16:15 DEBUG DefaultHttpClient:509 - Connection can be kept alive indefinitely
