2018-05-06 23:55:48 DEBUG wire:73 -  << "Frame-Options: deny[\r][\n]"
2018-05-06 23:55:48 DEBUG wire:73 -  << "X-Frame-Options: deny[\r][\n]"
2018-05-06 23:55:48 DEBUG wire:73 -  << "X-Content-Type-Options: nosniff[\r][\n]"
2018-05-06 23:55:48 DEBUG wire:73 -  << "Strict-Transport-Security: max-age=15768000[\r][\n]"
2018-05-06 23:55:48 DEBUG wire:73 -  << "Access-Control-Allow-Origin: *[\r][\n]"
2018-05-06 23:55:48 DEBUG wire:73 -  << "Access-Control-Allow-Credentials: true[\r][\n]"
2018-05-06 23:55:48 DEBUG wire:73 -  << "Access-Control-Allow-Methods: GET, OPTIONS[\r][\n]"
2018-05-06 23:55:48 DEBUG wire:73 -  << "Access-Control-Allow-Headers: Origin, X-Requested-With, Content-Type, Accept[\r][\n]"
2018-05-06 23:55:48 DEBUG wire:73 -  << "[\r][\n]"
2018-05-06 23:55:48 DEBUG DefaultClientConnection:259 - Receiving response: HTTP/1.1 200 OK
2018-05-06 23:55:48 DEBUG headers:262 - << HTTP/1.1 200 OK
2018-05-06 23:55:48 DEBUG headers:265 - << Server: nginx
2018-05-06 23:55:48 DEBUG headers:265 - << Date: Sun, 06 May 2018 18:25:48 GMT
