2018-05-03 15:16:15 DEBUG BasicClientConnectionManager:225 - Connection can be kept alive indefinitely
2018-05-03 15:16:15 INFO  Client:53 - this is info:companyName
2018-05-03 15:16:15 INFO  Client:55 - this is info:sector
2018-05-03 15:16:15 DEBUG Client:59 - this is debugprimary exchange
2018-05-06 23:55:43 INFO  StockAPIResponse:22 - this is info:main
2018-05-06 23:55:44 DEBUG BasicClientConnectionManager:161 - Get connection for route {s}->https://api.iextrading.com:443
2018-05-06 23:55:46 DEBUG DefaultClientConnectionOperator:177 - Connecting to api.iextrading.com:443
2018-05-06 23:55:48 DEBUG RequestAddCookies:123 - CookieSpec selected: default
2018-05-06 23:55:48 DEBUG RequestAuthCache:77 - Auth cache not set in the context
2018-05-06 23:55:48 DEBUG RequestTargetAuthentication:80 - Target auth state: UNCHALLENGED
2018-05-06 23:55:48 DEBUG RequestProxyAuthentication:89 - Proxy auth state: UNCHALLENGED
2018-05-06 23:55:48 DEBUG DefaultHttpClient:682 - Attempt 1 to execute request
2018-05-06 23:55:48 DEBUG DefaultClientConnection:274 - Sending request: GET /1.0/stock/market/batch?symbols=gOOG&types=quote HTTP/1.1
