2018-05-06 23:55:48 DEBUG wire:73 -  >> "GET /1.0/stock/market/batch?symbols=gOOG&types=quote HTTP/1.1[\r][\n]"
2018-05-06 23:55:48 DEBUG wire:73 -  >> "Host: api.iextrading.com[\r][\n]"
2018-05-06 23:55:48 DEBUG wire:73 -  >> "Connection: Keep-Alive[\r][\n]"
2018-05-06 23:55:48 DEBUG wire:73 -  >> "User-Agent: Apache-HttpClient/4.5.5 (Java/1.8.0_171)[\r][\n]"
2018-05-06 23:55:48 DEBUG wire:73 -  >> "[\r][\n]"
2018-05-06 23:55:48 DEBUG headers:278 - >> GET /1.0/stock/market/batch?symbols=gOOG&types=quote HTTP/1.1
2018-05-06 23:55:48 DEBUG headers:281 - >> Host: api.iextrading.com
2018-05-06 23:55:48 DEBUG headers:281 - >> Connection: Keep-Alive
2018-05-06 23:55:48 DEBUG headers:281 - >> User-Agent: Apache-HttpClient/4.5.5 (Java/1.8.0_171)
2018-05-06 23:55:48 DEBUG wire:73 -  << "HTTP/1.1 200 OK[\r][\n]"
2018-05-06 23:55:48 DEBUG wire:73 -  << "Server: nginx[\r][\n]"
2018-05-06 23:55:48 DEBUG wire:73 -  << "Date: Sun, 06 May 2018 18:25:48 GMT[\r][\n]"
2018-05-06 23:55:48 DEBUG wire:73 -  << "Content-Type: application/json; charset=utf-8[\r][\n]"
