2018-05-03 15:16:15 DEBUG headers:265 - << Content-Type: application/json; charset=utf-8
2018-05-03 15:16:15 DEBUG headers:265 - << Content-Length: 835
2018-05-03 15:16:15 DEBUG headers:265 - << Connection: keep-alive
2018-05-03 15:16:15 DEBUG headers:265 - << set-cookie: ctoken=94ac51b5e6f24eb792b8c8263b4b310a; Domain=.iextrading.com; Path=/; Expires=Thu, 03 May 2018 21:46:14 GMT; Secure
2018-05-03 15:16:15 DEBUG headers:265 - << Content-Security-Policy: default-src 'self'; child-src 'none'; object-src 'none'; style-src 'self' 'unsafe-inline'; font-src data:; connect-src 'self' https://auth.iextrading.com https://api.iextrading.com https://api.iextrading.com wss://iextrading.com wss://tops.iextrading.com wss://api.iextrading.com wss://iextrading.com; script-src 'self' 'unsafe-inline' 'unsafe-eval';
2018-05-03 15:16:15 DEBUG headers:265 - << X-Content-Security-Policy: default-src 'self'; child-src 'none'; object-src 'none'; style-src 'self' 'unsafe-inline'; font-src data:; connect-src 'self' https://auth.iextrading.com https://api.iextrading.com https://api.iextrading.com wss://iextrading.com wss://tops.iextrading.com wss://api.iextrading.com wss://iextrading.com; script-src 'self' 'unsafe-inline' 'unsafe-eval';
